# See package/makedevs/README for details
#
# This device table is used to assign proper ownership and permissions
# on various files. It doesn't create any device file, as it is used
# in both static device configurations (where /dev/ is static) and in
# dynamic configurations (where devtmpfs, mdev or udev are used).
#
# <name>								<type>	<mode>	<uid>	<gid>	<major>	<minor>	<start>	<inc>	<count>
/dev									d			755		0		0		-			-			-			-		-
/tmp									d			1777		0		0		-			-			-			-		-
/etc									d			755		0		0		-			-			-			-		-
/home/default						d			2755		1000	1000	-			-			-			-		-
/var/www								d			755		33		33		-			-			-			-		-
/etc/inittab						f			755		0		0		-			-			-			-		-
/etc/rc								f			755		0		0		-			-			-			-		-
/etc/shadow							f			600		0		0		-			-			-			-		-
/etc/passwd							f			644		0		0		-			-			-			-		-
/etc/network/if-up.d				d			755		0		0		-			-			-			-		-
/etc/network/if-pre-up.d		d			755		0		0		-			-			-			-		-
/etc/network/if-post-up.d		d			755		0		0		-			-			-			-		-
/etc/network/if-down.d			d			755		0		0		-			-			-			-		-
/etc/network/if-pre-down.d		d			755		0		0		-			-			-			-		-
/etc/network/if-post-down.d	d			755		0		0		-			-			-			-		-

