libxt_time.c: In function 'time_save':
libxt_time.c:366: warning: inlining failed in call to 'divide_time': optimizing for size and code size would grow
libxt_time.c:415: warning: called from here
libxt_time.c:366: warning: inlining failed in call to 'divide_time': optimizing for size and code size would grow
libxt_time.c:417: warning: called from here
libxt_time.c: In function 'time_print':
libxt_time.c:366: warning: inlining failed in call to 'divide_time': optimizing for size and code size would grow
libxt_time.c:383: warning: called from here
libxt_time.c:366: warning: inlining failed in call to 'divide_time': optimizing for size and code size would grow
libxt_time.c:385: warning: called from here
