drivers/mtd/maps/rtk_spi_flash_mio.c:525:3: warning: multi-line comment
drivers/mtd/maps/rtk_spi_flash_mio.c:547:9: warning: multi-line comment
drivers/mtd/maps/rtk_spi_flash_mio.c:569:9: warning: multi-line comment
drivers/mtd/maps/rtk_spi_flash_mio.c: In function '__read_spi_uid':
drivers/mtd/maps/rtk_spi_flash_mio.c:926: warning: unused variable 'i'
drivers/mtd/maps/rtk_spi_flash_mio.c: In function '_spi_flash_4b_fast_read':
drivers/mtd/maps/rtk_spi_flash_mio.c:1759: warning: assignment makes integer from pointer without a cast
drivers/mtd/maps/rtk_spi_flash_mio.c:1782: warning: no return statement in function returning non-void
drivers/mtd/maps/rtk_spi_flash_mio.c: In function 'spi_flash_reset':
drivers/mtd/maps/rtk_spi_flash_mio.c:2602: warning: unused variable 'req'
drivers/mtd/maps/rtk_spi_flash_mio.c: In function 'spidev_init':
drivers/mtd/maps/rtk_spi_flash_mio.c:2656: warning: ISO C90 forbids mixed declarations and code
drivers/mtd/maps/rtk_spi_flash_mio.c:2659: warning: unused variable 'tmp'
drivers/mtd/maps/rtk_spi_flash_mio.c: In function 'rtk_spi_erase':
drivers/mtd/maps/rtk_spi_flash_mio.c:3079: warning: cast to pointer from integer of different size
drivers/mtd/maps/rtk_spi_flash_mio.c: In function 'rtk_spi_write':
drivers/mtd/maps/rtk_spi_flash_mio.c:3161: warning: cast to pointer from integer of different size
drivers/mtd/maps/rtk_spi_flash_mio.c:3098: warning: unused variable 'i'
drivers/mtd/maps/rtk_spi_flash_mio.c: In function 'rtk_spi_read':
drivers/mtd/maps/rtk_spi_flash_mio.c:3222: warning: cast to pointer from integer of different size
drivers/mtd/maps/rtk_spi_flash_mio.c:3176: warning: unused variable 'i'
drivers/mtd/maps/rtk_spi_flash_mio.c: In function '__read_spi_uid':
drivers/mtd/maps/rtk_spi_flash_mio.c:946: warning: control reaches end of non-void function
drivers/mtd/maps/rtk_spi_flash_mio.c: At top level:
drivers/mtd/maps/rtk_spi_flash_mio.c:1726: warning: '_spi_flash_4b_fast_read' defined but not used
